%YAML 1.1
%TAG !u! tag:unity3d.com,2011:
--- !u!114 &11400000
MonoBehaviour:
  m_ObjectHideFlags: 0
  m_CorrespondingSourceObject: {fileID: 0}
  m_PrefabInstance: {fileID: 0}
  m_PrefabAsset: {fileID: 0}
  m_GameObject: {fileID: 0}
  m_Enabled: 1
  m_EditorHideFlags: 0
  m_Script: {fileID: 11500000, guid: ee5d1be0bf333df4590e33e182b47b94, type: 3}
  m_Name: LogicalBonusGenerator
  m_EditorClassIdentifier: 
  bonus: {fileID: 4583496369573918610, guid: 936897f1c3708934493a9b2e59971b62, type: 3}
  bonusPoolLimit: 20
  positionShift: {x: 0, y: 1, z: 0}
  chunkSize: 5
